row_date;CountAll;cANS;cABN;sumTalkTime;avgTalTime;cCallToBank;SL;percABN
2020-11-01;26;25;0;2064;82.5600;0;96;0
2020-11-02;422;171;51;9151;53.5146;198;76;12
2020-11-03;424;191;29;10693;55.9843;200;82;7
2020-11-04;76;65;7;4133;63.5846;4;86;9
2020-11-05;491;216;68;12310;56.9907;203;69;14
2020-11-06;377;153;32;8394;54.8627;191;80;8
2020-11-07;83;54;9;4618;85.5185;20;80;11
2020-11-08;31;22;5;1492;67.8182;4;81;16
2020-11-09;392;139;58;7908;56.8921;193;72;15
2020-11-10;307;140;32;6234;44.5286;135;79;10
2020-11-11;282;130;17;8015;61.6538;135;88;6
2020-11-12;343;151;23;8724;57.7748;168;86;7
2020-11-13;296;127;26;7239;57.0000;142;77;9
2020-11-14;36;31;5;2433;78.4839;0;86;14
2020-11-15;30;21;8;1196;56.9524;0;57;27
2020-11-16;399;183;34;13857;75.7213;178;79;9
2020-11-17;229;113;18;6257;55.3717;98;81;8
2020-11-18;260;120;16;8715;72.6250;124;87;6
2020-11-19;247;127;10;7829;61.6457;108;91;4
2020-11-20;264;119;51;8026;67.4454;93;68;19
2020-11-21;29;29;0;2741;94.5172;0;100;0
2020-11-22;25;24;1;2113;88.0417;0;88;4
2020-11-23;382;206;25;15381;74.6650;151;86;7
2020-11-24;296;142;31;7890;55.5634;122;79;10
2020-11-25;275;145;17;9898;68.2621;111;85;6
2020-11-26;302;142;17;10768;75.8310;142;89;6
2020-11-27;202;119;7;10341;86.8992;76;91;3
2020-11-28;34;33;1;1802;54.6061;0;94;3
2020-11-29;22;22;0;1666;75.7273;0;95;0
2020-11-30;364;182;26;12131;66.6538;156;83;7
2020-12-01;315;138;45;10039;72.7464;129;75;14
2020-12-02;271;134;22;7899;58.9478;115;84;8
2020-12-03;366;167;26;9730;58.2635;171;84;7
2020-12-04;389;189;22;10192;53.9259;177;86;6
2020-12-05;60;49;2;4228;86.2857;9;97;3
2020-12-06;34;30;4;2602;86.7333;0;85;12
2020-12-07;482;240;53;14592;60.8000;188;76;11
2020-12-08;417;196;30;12360;63.0612;190;87;7
2020-12-09;370;176;12;13295;75.5398;182;95;3
2020-12-10;344;157;15;10157;64.6943;172;91;4
2020-12-11;222;129;10;6339;49.1395;82;90;5
2020-12-12;68;47;1;3995;85.0000;20;87;1
2020-12-13;20;18;0;1335;74.1667;2;95;0
2020-12-14;293;148;15;9483;64.0743;130;87;5
2020-12-15;254;126;23;8733;69.3095;102;85;9
2020-12-16;255;108;53;4992;46.2222;92;69;21
2020-12-17;287;142;1;8166;57.5070;144;99;0
2020-12-18;232;116;4;6970;60.0862;111;94;2
2020-12-19;30;30;0;2008;66.9333;0;100;0
2020-12-20;26;26;0;1737;66.8077;0;96;0
2020-12-21;371;192;2;13655;71.1198;175;96;1
2020-12-22;303;159;5;10065;63.3019;136;91;2
2020-12-23;303;149;26;9987;67.0268;127;78;9
2020-12-24;317;157;25;10729;68.3376;135;85;8
2020-12-25;303;147;5;11124;75.6735;151;95;2
2020-12-26;44;35;0;3020;86.2857;9;91;0
2020-12-27;27;27;0;1312;48.5926;0;100;0
2020-12-28;364;206;1;12984;63.0291;156;99;0
2020-12-29;312;160;3;10598;66.2375;148;97;1
2020-12-30;283;127;1;7962;62.6929;155;98;0
2020-12-31;101;58;0;4136;71.3103;43;99;0
2021-01-01;3;3;0;266;88.6667;0;100;0
2021-01-02;10;6;0;551;91.8333;4;100;0
2021-01-03;16;14;0;1081;77.2143;2;100;0
2021-01-04;83;61;2;4399;72.1148;19;94;2
2021-01-05;63;56;0;4177;74.5893;7;100;0
2021-01-06;45;45;0;3322;73.8222;0;100;0
2021-01-07;21;17;0;1248;73.4118;4;100;0
2021-01-08;44;44;0;2711;61.6136;0;100;0
2021-01-09;41;39;2;2599;66.6410;0;95;5
2021-01-10;35;35;0;2508;71.6571;0;100;0
2021-01-11;685;324;57;20467;63.1698;301;75;8
2021-01-12;490;229;53;16389;71.5677;204;75;11
2021-01-13;361;190;1;11718;61.6737;170;98;0
2021-01-14;269;134;1;8479;63.2761;133;99;0
2021-01-15;278;138;2;11336;82.1449;136;95;1
2021-01-16;54;52;2;3439;66.1346;0;94;4
2021-01-17;23;23;0;1026;44.6087;0;100;0
2021-01-18;380;188;4;12776;67.9574;187;97;1
2021-01-19;262;125;2;9716;77.7280;135;97;1
2021-01-20;290;148;6;10591;71.5608;133;93;2
2021-01-21;347;178;3;9261;52.0281;166;95;1
2021-01-22;296;141;1;9043;64.1348;154;96;0
2021-01-23;54;46;2;3209;69.7609;6;93;4
2021-01-24;43;39;0;2350;60.2564;4;100;0
2021-01-25;421;206;23;13129;63.7330;191;85;5
2021-01-26;388;175;45;13614;77.7943;168;71;12
2021-01-27;373;165;17;12247;74.2242;191;92;5
2021-01-28;35;17;0;801;47.1176;18;100;0
